Testing bad date 2015-02-29

File:   badDateTest.txt
Line 3: Invalid day, not a leap year for date 2015-02-29
	at parser.Parser.error(Parser.java:2358)
	at utility.Utility.validateDate(Utility.java:68)
	at parser.Parser.assignmentStmt(Parser.java:1341)
	at parser.Parser.statements(Parser.java:90)
	at havabol.HavaBol.main(HavaBol.java:48)